aiodns==2.0.0 \
    --hash=sha256:815fdef4607474295d68da46978a54481dd1e7be153c7d60f9e72773cd38d77d \
    --hash=sha256:aaa5ac584f40fe778013df0aa6544bf157799bd3f608364b451840ed2c8688de
aiohttp==3.6.1 \
    --hash=sha256:022c400e30848b1994236e31fb38db1dc4b551efe049f737cbac690ab2cdf5c4 \
    --hash=sha256:10f9316ef068536dec0b9f09531fa1cb6bfa8394f278022cb96e789c77811ad2 \
    --hash=sha256:2599b93fd5ba1120b3bd1366d67a7e26bd45b3d5d5548069e00b2fbef7f20ab0 \
    --hash=sha256:2a1c71e7fb8c50e60fb4c9bab8bd5cf7c07f91a6b27dc2556d7354cd2ebb3689 \
    --hash=sha256:6a19d34cc01414d94dd5a4466f8f397293fcb8929df8eeb8989119cc5ef928bb \
    --hash=sha256:7aab39c2a61a5c6b15bb7e561218ef64770ca1fbf4cc1878c96e630e2b7cc3cc \
    --hash=sha256:8959e28bc1b87542b0ee4a8302128f633bee296252f261bf03e118c4dff725f0 \
    --hash=sha256:89820f7c488f4e9b1f74371da33403181e11e006663ddf074317aacd690838a6 \
    --hash=sha256:ab761cf0f0b0b90887e276b4a7918f11e323f2228bbb30814bbd538c122028bf \
    --hash=sha256:cc648ecaca79e37c6e26f370e802e7ae640a069913f661f66c0421084bef219a \
    --hash=sha256:d6f26e80cd55ac88e1f0397fc8d547933225a5dc1add040e27788c2a028c64c6 \
    --hash=sha256:e7d6ae4a36bfe6d7f93c6f42a0bfa1659f7d011006cb6e8207c85ef5acdb2986 \
    --hash=sha256:fc55b1fec0e4cc1134ffb09ea3970783ee2906dc5dfd7cd16917913f2cfed65b
alabaster==0.7.12 \
    --hash=sha256:446438bdcca0e05bd45ea2de1668c1d9b032e1a9154c2c259092d77031ddd359 \
    --hash=sha256:a661d72d58e6ea8a57f7a86e37d86716863ee5e92788398526d58b26a4e4dc02 \
    # via sphinx
astroid==2.3.0 \
    --hash=sha256:9b3f17b0550f82e28a6776a4e5222441f48e523b0773df4bc505bb6b7c2093b7 \
    --hash=sha256:c7e2e5773d87ccc00d01c273e439386f4d6d63cce61317a79ccce5880162f9fb \
    # via pylint
async-timeout==3.0.1 \
    --hash=sha256:0c3c816a028d47f659d6ff5c745cb2acf1f966da1fe5c19c77a70282b25f4c5f \
    --hash=sha256:4291ca197d287d274d0b6cb5d6f8f8f82d434ed288f962539ff18cc9012f9ea3 \
    # via aiohttp
atomicwrites==1.3.0 \
    --hash=sha256:03472c30eb2c5d1ba9227e4c2ca66ab8287fbfbbda3888aa93dc2e28fc6811b4 \
    --hash=sha256:75a9445bac02d8d058d5e1fe689654ba5a6556a1dfd8ce6ec55a0ed79866cfa6 \
    # via pytest
attrs==19.1.0 \
    --hash=sha256:69c0dbf2ed392de1cb5ec704444b08a5ef81680a61cb899dc08127123af36a79 \
    --hash=sha256:f0b870f674851ecbfbbbd364d6b5cbdff9dcedbc7f3f5e18a6891057f21fe399 \
    # via aiohttp, pytest
babel==2.7.0 \
    --hash=sha256:af92e6106cb7c55286b25b38ad7695f8b4efb36a90ba483d7f7a6628c46158ab \
    --hash=sha256:e86135ae101e31e2c8ec20a4e0c5220f4eed12487d5cf3f78be7e98d3a57fc28 \
    # via sphinx
cchardet==2.1.4 \
    --hash=sha256:079aa02a14072874d943a671ba778a9def5b0e3cedc2ac9f59308526cfb31472 \
    --hash=sha256:3e048a21688dcb4c797f40c8deb3600887bcaf435620256fd8becd4252012750 \
    --hash=sha256:41fced7a6f05ef859fe3eac89fc2120aca3cbbfd2b6c803bed3ee4bf02956903 \
    --hash=sha256:440903d5dca3d326f4b841e7fa760b6af1be4f950ead1a6ff77b76eaa46f0cd3 \
    --hash=sha256:50170f346527c5df4d3cb94648ca187c666e61c0db6e510b984e867c44709d8b \
    --hash=sha256:6c55a6e7bc7337671c9f1ad90746c0efb2b2979ff4305c7ca1d7d381f05174c1 \
    --hash=sha256:7f581ea172b252034f745dfd49733966b73b73907bdef0b47ad5f2008b797d54 \
    --hash=sha256:80f7b087198827e60c81574c321b12f89188eae626ae1567d66808928be42f88 \
    --hash=sha256:8ba753ff73ca2f3554999a0e027eab9450f6ffdb7e92e1b4e13b52be89995349 \
    --hash=sha256:9ad8f61d6d1ca37bd4b954ad92d461ea4f58d0dc413b0790a5abed7c09e54996 \
    --hash=sha256:a35bd23cedbaa87cc9300af1dd10bb03fda41894045fbca7bfdf1d350b813f25 \
    --hash=sha256:a8feb9a7def2310e18c27e485a21a38669abe8c2e36b93c6ce1a1363495d4cdf \
    --hash=sha256:aa9dd4cee8a5210a6d0a7b263b98dc50637e00401fc4a5ad3ce2dbef54fdfa02 \
    --hash=sha256:ab9858a0673262e467619df91f425cfef0590dcf5deef5c0c7945e9dc4dbd7d8 \
    --hash=sha256:b09a488bbb35be95f82845e3c4312be9025e8377975b027eee67e0b39445e070 \
    --hash=sha256:b2893d558761b3534cddf5a49ba8d77df3d8f964d7b14680b925f4a85fc13476 \
    --hash=sha256:b5a8f9b229a30cd2432572d15e169483bc47c24418772ff58d0585050631c2fd \
    --hash=sha256:bded54eeccd5f810bc69e076b3d9a35819a92e5e0559ad274b9ae9061b1b881d \
    --hash=sha256:cbc206061e69561af6e4cba11f99abd928346c6b5bcdc83eb32ae40e9fc23a5f \
    --hash=sha256:cc9745e0400da4cfb49f075e7819f22473b66443f953427058fee2c7b9547cc0 \
    --hash=sha256:db30bf3825702c07fc55a290d41663fd8151f870642a15667bbabf81fff21e0b \
    --hash=sha256:eeeb1b95bb5851dda93ee522860a0e6066d47921cb1d540cb778346e37e5a524 \
    --hash=sha256:f1c3919fb71ac5da3aeee42c5b731c99dcd2beed71db7fdc28ca993c173f0402
certifi==2019.9.11 \
    --hash=sha256:e4f3620cfea4f83eedc95b24abd9cd56f3c4b146dd0177e83a21b4eb49e21e50 \
    --hash=sha256:fd7c7c74727ddcf00e9acd26bba8da604ffec95bf1c2144e67aff7a8b50e6cef \
    # via requests
cffi==1.12.3 \
    --hash=sha256:041c81822e9f84b1d9c401182e174996f0bae9991f33725d059b771744290774 \
    --hash=sha256:046ef9a22f5d3eed06334d01b1e836977eeef500d9b78e9ef693f9380ad0b83d \
    --hash=sha256:066bc4c7895c91812eff46f4b1c285220947d4aa46fa0a2651ff85f2afae9c90 \
    --hash=sha256:066c7ff148ae33040c01058662d6752fd73fbc8e64787229ea8498c7d7f4041b \
    --hash=sha256:2444d0c61f03dcd26dbf7600cf64354376ee579acad77aef459e34efcb438c63 \
    --hash=sha256:300832850b8f7967e278870c5d51e3819b9aad8f0a2c8dbe39ab11f119237f45 \
    --hash=sha256:34c77afe85b6b9e967bd8154e3855e847b70ca42043db6ad17f26899a3df1b25 \
    --hash=sha256:46de5fa00f7ac09f020729148ff632819649b3e05a007d286242c4882f7b1dc3 \
    --hash=sha256:4aa8ee7ba27c472d429b980c51e714a24f47ca296d53f4d7868075b175866f4b \
    --hash=sha256:4d0004eb4351e35ed950c14c11e734182591465a33e960a4ab5e8d4f04d72647 \
    --hash=sha256:4e3d3f31a1e202b0f5a35ba3bc4eb41e2fc2b11c1eff38b362de710bcffb5016 \
    --hash=sha256:50bec6d35e6b1aaeb17f7c4e2b9374ebf95a8975d57863546fa83e8d31bdb8c4 \
    --hash=sha256:55cad9a6df1e2a1d62063f79d0881a414a906a6962bc160ac968cc03ed3efcfb \
    --hash=sha256:5662ad4e4e84f1eaa8efce5da695c5d2e229c563f9d5ce5b0113f71321bcf753 \
    --hash=sha256:59b4dc008f98fc6ee2bb4fd7fc786a8d70000d058c2bbe2698275bc53a8d3fa7 \
    --hash=sha256:73e1ffefe05e4ccd7bcea61af76f36077b914f92b76f95ccf00b0c1b9186f3f9 \
    --hash=sha256:a1f0fd46eba2d71ce1589f7e50a9e2ffaeb739fb2c11e8192aa2b45d5f6cc41f \
    --hash=sha256:a2e85dc204556657661051ff4bab75a84e968669765c8a2cd425918699c3d0e8 \
    --hash=sha256:a5457d47dfff24882a21492e5815f891c0ca35fefae8aa742c6c263dac16ef1f \
    --hash=sha256:a8dccd61d52a8dae4a825cdbb7735da530179fea472903eb871a5513b5abbfdc \
    --hash=sha256:ae61af521ed676cf16ae94f30fe202781a38d7178b6b4ab622e4eec8cefaff42 \
    --hash=sha256:b012a5edb48288f77a63dba0840c92d0504aa215612da4541b7b42d849bc83a3 \
    --hash=sha256:d2c5cfa536227f57f97c92ac30c8109688ace8fa4ac086d19d0af47d134e2909 \
    --hash=sha256:d42b5796e20aacc9d15e66befb7a345454eef794fdb0737d1af593447c6c8f45 \
    --hash=sha256:dee54f5d30d775f525894d67b1495625dd9322945e7fee00731952e0368ff42d \
    --hash=sha256:e070535507bd6aa07124258171be2ee8dfc19119c28ca94c9dfb7efd23564512 \
    --hash=sha256:e1ff2748c84d97b065cc95429814cdba39bcbd77c9c85c89344b317dc0d9cbff \
    --hash=sha256:ed851c75d1e0e043cbf5ca9a8e1b13c4c90f3fbd863dacb01c0808e2b5204201 \
    # via pycares
chardet==3.0.4 \
    --hash=sha256:84ab92ed1c4d4f16916e05906b6b75a6c0fb5db821cc65e70cbd64a3e2a5eaae \
    --hash=sha256:fc323ffcaeaed0e0a02bf4d117757b98aed530d9ed4531e3e15460124c106691 \
    # via aiohttp, requests
click==7.0 \
    --hash=sha256:2335065e6395b9e67ca716de5f7526736bfa6ceead690adf616d925bdc622b13 \
    --hash=sha256:5b94b49521f6456670fdb30cd82a4eca9412788a93fa6dd6df72c94d5a8ff2d7
coverage==4.5.4 \
    --hash=sha256:08907593569fe59baca0bf152c43f3863201efb6113ecb38ce7e97ce339805a6 \
    --hash=sha256:0be0f1ed45fc0c185cfd4ecc19a1d6532d72f86a2bac9de7e24541febad72650 \
    --hash=sha256:141f08ed3c4b1847015e2cd62ec06d35e67a3ac185c26f7635f4406b90afa9c5 \
    --hash=sha256:19e4df788a0581238e9390c85a7a09af39c7b539b29f25c89209e6c3e371270d \
    --hash=sha256:23cc09ed395b03424d1ae30dcc292615c1372bfba7141eb85e11e50efaa6b351 \
    --hash=sha256:245388cda02af78276b479f299bbf3783ef0a6a6273037d7c60dc73b8d8d7755 \
    --hash=sha256:331cb5115673a20fb131dadd22f5bcaf7677ef758741312bee4937d71a14b2ef \
    --hash=sha256:386e2e4090f0bc5df274e720105c342263423e77ee8826002dcffe0c9533dbca \
    --hash=sha256:3a794ce50daee01c74a494919d5ebdc23d58873747fa0e288318728533a3e1ca \
    --hash=sha256:60851187677b24c6085248f0a0b9b98d49cba7ecc7ec60ba6b9d2e5574ac1ee9 \
    --hash=sha256:63a9a5fc43b58735f65ed63d2cf43508f462dc49857da70b8980ad78d41d52fc \
    --hash=sha256:6b62544bb68106e3f00b21c8930e83e584fdca005d4fffd29bb39fb3ffa03cb5 \
    --hash=sha256:6ba744056423ef8d450cf627289166da65903885272055fb4b5e113137cfa14f \
    --hash=sha256:7494b0b0274c5072bddbfd5b4a6c6f18fbbe1ab1d22a41e99cd2d00c8f96ecfe \
    --hash=sha256:826f32b9547c8091679ff292a82aca9c7b9650f9fda3e2ca6bf2ac905b7ce888 \
    --hash=sha256:93715dffbcd0678057f947f496484e906bf9509f5c1c38fc9ba3922893cda5f5 \
    --hash=sha256:9a334d6c83dfeadae576b4d633a71620d40d1c379129d587faa42ee3e2a85cce \
    --hash=sha256:af7ed8a8aa6957aac47b4268631fa1df984643f07ef00acd374e456364b373f5 \
    --hash=sha256:bf0a7aed7f5521c7ca67febd57db473af4762b9622254291fbcbb8cd0ba5e33e \
    --hash=sha256:bf1ef9eb901113a9805287e090452c05547578eaab1b62e4ad456fcc049a9b7e \
    --hash=sha256:c0afd27bc0e307a1ffc04ca5ec010a290e49e3afbe841c5cafc5c5a80ecd81c9 \
    --hash=sha256:dd579709a87092c6dbee09d1b7cfa81831040705ffa12a1b248935274aee0437 \
    --hash=sha256:df6712284b2e44a065097846488f66840445eb987eb81b3cc6e4149e7b6982e1 \
    --hash=sha256:e07d9f1a23e9e93ab5c62902833bf3e4b1f65502927379148b6622686223125c \
    --hash=sha256:e2ede7c1d45e65e209d6093b762e98e8318ddeff95317d07a27a2140b80cfd24 \
    --hash=sha256:e4ef9c164eb55123c62411f5936b5c2e521b12356037b6e1c2617cef45523d47 \
    --hash=sha256:eca2b7343524e7ba246cab8ff00cab47a2d6d54ada3b02772e908a45675722e2 \
    --hash=sha256:eee64c616adeff7db37cc37da4180a3a5b6177f5c46b187894e633f088fb5b28 \
    --hash=sha256:ef824cad1f980d27f26166f86856efe11eff9912c4fed97d3804820d43fa550c \
    --hash=sha256:efc89291bd5a08855829a3c522df16d856455297cf35ae827a37edac45f466a7 \
    --hash=sha256:fa964bae817babece5aa2e8c1af841bebb6d0b9add8e637548809d040443fee0 \
    --hash=sha256:ff37757e068ae606659c28c3bd0d923f9d29a85de79bf25b2b34b148473b5025 \
    # via pytest-cov
docutils==0.15.2 \
    --hash=sha256:6c4f696463b79f1fb8ba0c594b63840ebd41f059e92b31957c46b74a4599b6d0 \
    --hash=sha256:9e4d7ecfc600058e07ba661411a2b7de2fd0fafa17d1a7f7361cd47b1175c827 \
    --hash=sha256:a2aeea129088da402665e92e0b25b04b073c04b2dce4ab65caaa38b7ce2e1a99 \
    # via sphinx
entrypoints==0.3 \
    --hash=sha256:589f874b313739ad35be6e0cd7efde2a4e9b6fea91edcc34e58ecbb8dbe56d19 \
    --hash=sha256:c70dd71abe5a8c85e55e12c19bd91ccfeec11a6e99044204511f9ed547d48451 \
    # via flake8
fancycompleter==0.8 \
    --hash=sha256:d2522f1f3512371f295379c4c0d1962de06762eb586c199620a2a5d423539b12 \
    # via pdbpp
flake8==3.7.8 \
    --hash=sha256:19241c1cbc971b9962473e4438a2ca19749a7dd002dd1a946eaba171b4114548 \
    --hash=sha256:8e9dfa3cecb2400b3738a42c54c3043e821682b9c840b0448c0503f781130696 \
    # via pytest-flake8
idna==2.8 \
    --hash=sha256:c357b3f628cf53ae2c4c05627ecc484553142ca23264e593d327bcde5e9c3407 \
    --hash=sha256:ea8b7f6188e6fa117537c3df7da9fc686d485087abf6ac197f9c46432f7e4a3c \
    # via requests, yarl
imagesize==1.1.0 \
    --hash=sha256:3f349de3eb99145973fefb7dbe38554414e5c30abd0c8e4b970a7c9d09f3a1d8 \
    --hash=sha256:f3832918bc3c66617f92e35f5d70729187676313caa60c187eb0f28b8fe5e3b5 \
    # via sphinx
importlib-metadata==0.23 \
    --hash=sha256:aa18d7378b00b40847790e7c27e11673d7fed219354109d0e7b9e5b25dc3ad26 \
    --hash=sha256:d5f18a79777f3aa179c145737780282e27b508fc8fd688cb17c7a813e8bd39af \
    # via pluggy, pytest
isort==4.3.21 \
    --hash=sha256:54da7e92468955c4fceacd0c86bd0ec997b0e1ee80d97f67c35a78b719dccab1 \
    --hash=sha256:6e811fcb295968434526407adb8796944f1988c5b65e8139058f2014cbe100fd \
    # via pylint
jinja2==2.10.1 \
    --hash=sha256:065c4f02ebe7f7cf559e49ee5a95fb800a9e4528727aec6f24402a5374c65013 \
    --hash=sha256:14dd6caf1527abb21f08f86c784eac40853ba93edb79552aa1e4b8aef1b61c7b \
    # via sphinx
lazy-object-proxy==1.4.2 \
    --hash=sha256:02b260c8deb80db09325b99edf62ae344ce9bc64d68b7a634410b8e9a568edbf \
    --hash=sha256:18f9c401083a4ba6e162355873f906315332ea7035803d0fd8166051e3d402e3 \
    --hash=sha256:1f2c6209a8917c525c1e2b55a716135ca4658a3042b5122d4e3413a4030c26ce \
    --hash=sha256:2f06d97f0ca0f414f6b707c974aaf8829c2292c1c497642f63824119d770226f \
    --hash=sha256:616c94f8176808f4018b39f9638080ed86f96b55370b5a9463b2ee5c926f6c5f \
    --hash=sha256:63b91e30ef47ef68a30f0c3c278fbfe9822319c15f34b7538a829515b84ca2a0 \
    --hash=sha256:77b454f03860b844f758c5d5c6e5f18d27de899a3db367f4af06bec2e6013a8e \
    --hash=sha256:83fe27ba321e4cfac466178606147d3c0aa18e8087507caec78ed5a966a64905 \
    --hash=sha256:84742532d39f72df959d237912344d8a1764c2d03fe58beba96a87bfa11a76d8 \
    --hash=sha256:874ebf3caaf55a020aeb08acead813baf5a305927a71ce88c9377970fe7ad3c2 \
    --hash=sha256:9f5caf2c7436d44f3cec97c2fa7791f8a675170badbfa86e1992ca1b84c37009 \
    --hash=sha256:a0c8758d01fcdfe7ae8e4b4017b13552efa7f1197dd7358dc9da0576f9d0328a \
    --hash=sha256:a4def978d9d28cda2d960c279318d46b327632686d82b4917516c36d4c274512 \
    --hash=sha256:ad4f4be843dace866af5fc142509e9b9817ca0c59342fdb176ab6ad552c927f5 \
    --hash=sha256:ae33dd198f772f714420c5ab698ff05ff900150486c648d29951e9c70694338e \
    --hash=sha256:b4a2b782b8a8c5522ad35c93e04d60e2ba7f7dcb9271ec8e8c3e08239be6c7b4 \
    --hash=sha256:c462eb33f6abca3b34cdedbe84d761f31a60b814e173b98ede3c81bb48967c4f \
    --hash=sha256:fd135b8d35dfdcdb984828c84d695937e58cc5f49e1c854eb311c4d6aa03f4f1 \
    # via astroid
markupsafe==1.1.1 \
    --hash=sha256:00bc623926325b26bb9605ae9eae8a215691f33cae5df11ca5424f06f2d1f473 \
    --hash=sha256:09027a7803a62ca78792ad89403b1b7a73a01c8cb65909cd876f7fcebd79b161 \
    --hash=sha256:09c4b7f37d6c648cb13f9230d847adf22f8171b1ccc4d5682398e77f40309235 \
    --hash=sha256:1027c282dad077d0bae18be6794e6b6b8c91d58ed8a8d89a89d59693b9131db5 \
    --hash=sha256:24982cc2533820871eba85ba648cd53d8623687ff11cbb805be4ff7b4c971aff \
    --hash=sha256:29872e92839765e546828bb7754a68c418d927cd064fd4708fab9fe9c8bb116b \
    --hash=sha256:43a55c2930bbc139570ac2452adf3d70cdbb3cfe5912c71cdce1c2c6bbd9c5d1 \
    --hash=sha256:46c99d2de99945ec5cb54f23c8cd5689f6d7177305ebff350a58ce5f8de1669e \
    --hash=sha256:500d4957e52ddc3351cabf489e79c91c17f6e0899158447047588650b5e69183 \
    --hash=sha256:535f6fc4d397c1563d08b88e485c3496cf5784e927af890fb3c3aac7f933ec66 \
    --hash=sha256:62fe6c95e3ec8a7fad637b7f3d372c15ec1caa01ab47926cfdf7a75b40e0eac1 \
    --hash=sha256:6dd73240d2af64df90aa7c4e7481e23825ea70af4b4922f8ede5b9e35f78a3b1 \
    --hash=sha256:717ba8fe3ae9cc0006d7c451f0bb265ee07739daf76355d06366154ee68d221e \
    --hash=sha256:79855e1c5b8da654cf486b830bd42c06e8780cea587384cf6545b7d9ac013a0b \
    --hash=sha256:7c1699dfe0cf8ff607dbdcc1e9b9af1755371f92a68f706051cc8c37d447c905 \
    --hash=sha256:88e5fcfb52ee7b911e8bb6d6aa2fd21fbecc674eadd44118a9cc3863f938e735 \
    --hash=sha256:8defac2f2ccd6805ebf65f5eeb132adcf2ab57aa11fdf4c0dd5169a004710e7d \
    --hash=sha256:98c7086708b163d425c67c7a91bad6e466bb99d797aa64f965e9d25c12111a5e \
    --hash=sha256:9add70b36c5666a2ed02b43b335fe19002ee5235efd4b8a89bfcf9005bebac0d \
    --hash=sha256:9bf40443012702a1d2070043cb6291650a0841ece432556f784f004937f0f32c \
    --hash=sha256:ade5e387d2ad0d7ebf59146cc00c8044acbd863725f887353a10df825fc8ae21 \
    --hash=sha256:b00c1de48212e4cc9603895652c5c410df699856a2853135b3967591e4beebc2 \
    --hash=sha256:b1282f8c00509d99fef04d8ba936b156d419be841854fe901d8ae224c59f0be5 \
    --hash=sha256:b2051432115498d3562c084a49bba65d97cf251f5a331c64a12ee7e04dacc51b \
    --hash=sha256:ba59edeaa2fc6114428f1637ffff42da1e311e29382d81b339c1817d37ec93c6 \
    --hash=sha256:c8716a48d94b06bb3b2524c2b77e055fb313aeb4ea620c8dd03a105574ba704f \
    --hash=sha256:cd5df75523866410809ca100dc9681e301e3c27567cf498077e8551b6d20e42f \
    --hash=sha256:e249096428b3ae81b08327a63a485ad0878de3fb939049038579ac0ef61e17e7 \
    # via jinja2
mccabe==0.6.1 \
    --hash=sha256:ab8a6258860da4b6677da4bd2fe5dc2c659cff31b3ee4f7f5d64e79735b80d42 \
    --hash=sha256:dd8d182285a0fe56bace7f45b5e7d1a6ebcbf524e8f3bd87eb0f125271b8831f \
    # via flake8, pylint
more-itertools==7.2.0 \
    --hash=sha256:409cd48d4db7052af495b09dec721011634af3753ae1ef92d2b32f73a745f832 \
    --hash=sha256:92b8c4b06dac4f0611c0729b2f2ede52b2e1bac1ab48f089c7ddc12e26bb60c4 \
    # via pytest, zipp
multidict==4.5.2 \
    --hash=sha256:024b8129695a952ebd93373e45b5d341dbb87c17ce49637b34000093f243dd4f \
    --hash=sha256:041e9442b11409be5e4fc8b6a97e4bcead758ab1e11768d1e69160bdde18acc3 \
    --hash=sha256:045b4dd0e5f6121e6f314d81759abd2c257db4634260abcfe0d3f7083c4908ef \
    --hash=sha256:047c0a04e382ef8bd74b0de01407e8d8632d7d1b4db6f2561106af812a68741b \
    --hash=sha256:068167c2d7bbeebd359665ac4fff756be5ffac9cda02375b5c5a7c4777038e73 \
    --hash=sha256:148ff60e0fffa2f5fad2eb25aae7bef23d8f3b8bdaf947a65cdbe84a978092bc \
    --hash=sha256:1d1c77013a259971a72ddaa83b9f42c80a93ff12df6a4723be99d858fa30bee3 \
    --hash=sha256:1d48bc124a6b7a55006d97917f695effa9725d05abe8ee78fd60d6588b8344cd \
    --hash=sha256:31dfa2fc323097f8ad7acd41aa38d7c614dd1960ac6681745b6da124093dc351 \
    --hash=sha256:34f82db7f80c49f38b032c5abb605c458bac997a6c3142e0d6c130be6fb2b941 \
    --hash=sha256:3d5dd8e5998fb4ace04789d1d008e2bb532de501218519d70bb672c4c5a2fc5d \
    --hash=sha256:4a6ae52bd3ee41ee0f3acf4c60ceb3f44e0e3bc52ab7da1c2b2aa6703363a3d1 \
    --hash=sha256:4b02a3b2a2f01d0490dd39321c74273fed0568568ea0e7ea23e02bd1fb10a10b \
    --hash=sha256:4b843f8e1dd6a3195679d9838eb4670222e8b8d01bc36c9894d6c3538316fa0a \
    --hash=sha256:5de53a28f40ef3c4fd57aeab6b590c2c663de87a5af76136ced519923d3efbb3 \
    --hash=sha256:61b2b33ede821b94fa99ce0b09c9ece049c7067a33b279f343adfe35108a4ea7 \
    --hash=sha256:6a3a9b0f45fd75dc05d8e93dc21b18fc1670135ec9544d1ad4acbcf6b86781d0 \
    --hash=sha256:76ad8e4c69dadbb31bad17c16baee61c0d1a4a73bed2590b741b2e1a46d3edd0 \
    --hash=sha256:7ba19b777dc00194d1b473180d4ca89a054dd18de27d0ee2e42a103ec9b7d014 \
    --hash=sha256:7c1b7eab7a49aa96f3db1f716f0113a8a2e93c7375dd3d5d21c4941f1405c9c5 \
    --hash=sha256:7fc0eee3046041387cbace9314926aa48b681202f8897f8bff3809967a049036 \
    --hash=sha256:8ccd1c5fff1aa1427100ce188557fc31f1e0a383ad8ec42c559aabd4ff08802d \
    --hash=sha256:8e08dd76de80539d613654915a2f5196dbccc67448df291e69a88712ea21e24a \
    --hash=sha256:c18498c50c59263841862ea0501da9f2b3659c00db54abfbf823a80787fde8ce \
    --hash=sha256:c49db89d602c24928e68c0d510f4fcf8989d77defd01c973d6cbe27e684833b1 \
    --hash=sha256:ce20044d0317649ddbb4e54dab3c1bcc7483c78c27d3f58ab3d0c7e6bc60d26a \
    --hash=sha256:d1071414dd06ca2eafa90c85a079169bfeb0e5f57fd0b45d44c092546fcd6fd9 \
    --hash=sha256:d3be11ac43ab1a3e979dac80843b42226d5d3cccd3986f2e03152720a4297cd7 \
    --hash=sha256:db603a1c235d110c860d5f39988ebc8218ee028f07a7cbc056ba6424372ca31b \
    # via aiohttp, yarl
packaging==19.2 \
    --hash=sha256:28b924174df7a2fa32c1953825ff29c61e2f5e082343165438812f00d3a7fc47 \
    --hash=sha256:d9551545c6d761f3def1677baf08ab2a3ca17c56879e70fecba2fc4dde4ed108 \
    # via pytest, sphinx
pbr==5.4.3 \
    --hash=sha256:2c8e420cd4ed4cec4e7999ee47409e876af575d4c35a45840d59e8b5f3155ab8 \
    --hash=sha256:b32c8ccaac7b1a20c0ce00ce317642e6cf231cf038f9875e0280e28af5bf7ac9 \
    # via sphinx-click
pdbpp==0.10.0 \
    --hash=sha256:ee7eab02ecf32d92bd66b45eedb9bda152fa13f7be0dceb7050413a52cbbc4dd
pip-tools==4.1.0 \
    --hash=sha256:156a950612e400bf951fc8139ed5420fbeb6a0d639fe8771344658b751a3f21e \
    --hash=sha256:69a1fd795bb95002b37217d62306026e67ef17012e9f6cfb1c3bfab5c3c4bb2c
pluggy==0.13.0 \
    --hash=sha256:0db4b7601aae1d35b4a033282da476845aa19185c1e6964b25cf324b5e4ec3e6 \
    --hash=sha256:fa5fa1622fa6dd5c030e9cad086fa19ef6a0cf6d7a2d12318e10cb49d6d68f34 \
    # via pytest
py==1.8.0 \
    --hash=sha256:64f65755aee5b381cea27766a3a147c3f15b9b6b9ac88676de66ba2ae36793fa \
    --hash=sha256:dc639b046a6e2cff5bbe40194ad65936d6ba360b52b3c3fe1d08a82dd50b5e53 \
    # via pytest
pycares==3.0.0 \
    --hash=sha256:2ca080db265ea238dc45f997f94effb62b979a617569889e265c26a839ed6305 \
    --hash=sha256:6f79c6afb6ce603009db2042fddc2e348ad093ece9784cbe2daa809499871a23 \
    --hash=sha256:70918d06eb0603016d37092a5f2c0228509eb4e6c5a3faacb4184f6ab7be7650 \
    --hash=sha256:755187d28d24a9ea63aa2b4c0638be31d65fbf7f0ce16d41261b9f8cb55a1b99 \
    --hash=sha256:7baa4b1f2146eb8423ff8303ebde3a20fb444a60db761fba0430d104fe35ddbf \
    --hash=sha256:90b27d4df86395f465a171386bc341098d6d47b65944df46518814ae298f6cc6 \
    --hash=sha256:9e090dd6b2afa65cb51c133883b2bf2240fd0f717b130b0048714b33fb0f47ce \
    --hash=sha256:a11b7d63c3718775f6e805d6464cb10943780395ab042c7e5a0a7a9f612735dd \
    --hash=sha256:b253f5dcaa0ac7076b79388a3ac80dd8f3bd979108f813baade40d3a9b8bf0bd \
    --hash=sha256:c7f4f65e44ba35e35ad3febc844270665bba21cfb0fb7d749434e705b556e087 \
    --hash=sha256:cdb342e6a254f035bd976d95807a2184038fc088d957a5104dcaab8be602c093 \
    --hash=sha256:cf08e164f8bfb83b9fe633feb56f2754fae6baefcea663593794fa0518f8f98c \
    --hash=sha256:df9bc694cf03673878ea8ce674082c5acd134991d64d6c306d4bd61c0c1df98f \
    # via aiodns
pycodestyle==2.5.0 \
    --hash=sha256:95a2219d12372f05704562a14ec30bc76b05a5b297b21a5dfe3f6fac3491ae56 \
    --hash=sha256:e40a936c9a450ad81df37f549d676d127b1b66000a6c500caa2b085bc0ca976c \
    # via flake8
pycparser==2.19 \
    --hash=sha256:a988718abfad80b6b157acce7bf130a30876d27603738ac39f140993246b25b3 \
    # via cffi
pyflakes==2.1.1 \
    --hash=sha256:17dbeb2e3f4d772725c777fabc446d5634d1038f234e77343108ce445ea69ce0 \
    --hash=sha256:d976835886f8c5b31d47970ed689944a0262b5f3afa00a5a7b4dc81e5449f8a2 \
    # via flake8
pygments==2.4.2 \
    --hash=sha256:71e430bc85c88a430f000ac1d9b331d2407f681d6f6aec95e8bcfbc3df5b0127 \
    --hash=sha256:881c4c157e45f30af185c1ffe8d549d48ac9127433f2c380c24b84572ad66297 \
    # via pdbpp, sphinx
pylint==2.4.1 \
    --hash=sha256:2d64b4b8fa044480b1a49d47535da53557f8f426b8c5bd6a23beb65e905101a1 \
    --hash=sha256:6cbd124a1a5ed1fd3f3fed4178a6c2ba166862ea0dac6ab2ff8d9f0998b13e5c \
    # via pytest-pylint
pyparsing==2.4.2 \
    --hash=sha256:6f98a7b9397e206d78cc01df10131398f1c8b8510a2f4d97d9abd82e1aacdd80 \
    --hash=sha256:d9338df12903bbf5d65a0e4e87c2161968b10d2e489652bb47001d82a9b028b4 \
    # via packaging
pytest-cov==2.7.1 \
    --hash=sha256:2b097cde81a302e1047331b48cadacf23577e431b61e9c6f49a1170bbe3d3da6 \
    --hash=sha256:e00ea4fdde970725482f1f35630d12f074e121a23801aabf2ae154ec6bdd343a
pytest-flake8==1.0.4 \
    --hash=sha256:4d225c13e787471502ff94409dcf6f7927049b2ec251c63b764a4b17447b60c0 \
    --hash=sha256:d7e2b6b274a255b7ae35e9224c85294b471a83b76ecb6bd53c337ae977a499af
pytest-pylint==0.14.1 \
    --hash=sha256:8c38ea779e540e27ec4378b0820d906006e09f4ac834defbd886abbf57c7d2ec \
    --hash=sha256:a4f5e5007f88c2095dcac799e9f7eed3d7e7a2e657596e26093814980ff5fa20 \
    --hash=sha256:a574c246535308f8f6ceac10fa82f8fffffa837071f7985b22515895185700c1
pytest-runner==5.1 \
    --hash=sha256:25a013c8d84f0ca60bb01bd11913a3bcab420f601f0f236de4423074af656e7a \
    --hash=sha256:d04243fbf29a3b574f18f1bcff2a07f505db5daede82f706f2e32728f77d3f4d
pytest==5.1.3 \
    --hash=sha256:813b99704b22c7d377bbd756ebe56c35252bb710937b46f207100e843440b3c2 \
    --hash=sha256:cc6620b96bc667a0c8d4fa592a8c9c94178a1bd6cc799dbb057dfd9286d31a31
pytz==2019.2 \
    --hash=sha256:26c0b32e437e54a18161324a2fca3c4b9846b74a8dccddd843113109e1116b32 \
    --hash=sha256:c894d57500a4cd2d5c71114aaab77dbab5eabd9022308ce5ac9bb93a60a6f0c7 \
    # via babel
requests==2.22.0 \
    --hash=sha256:11e007a8a2aa0323f5a921e9e6a2d7e4e67d9877e85773fba9ba6419025cbeb4 \
    --hash=sha256:9cf5292fcd0f598c671cfc1e0d7d1a7f13bb8085e9a590f48c010551dc6c4b31 \
    # via sphinx
six==1.12.0 \
    --hash=sha256:3350809f0555b11f552448330d0b52d5f24c91a322ea4a15ef22629740f3761c \
    --hash=sha256:d16a0141ec1a18405cd4ce8b4613101da75da0e9a7aec5bdd4fa804d0e0eba73 \
    # via astroid, packaging, pip-tools, pytest-pylint
snowballstemmer==1.9.1 \
    --hash=sha256:713e53b79cbcf97bc5245a06080a33d54a77e7cce2f789c835a143bcdb5c033e \
    # via sphinx
sphinx-click==2.3.0 \
    --hash=sha256:7be243c3f621b6a45e5ff8f644408ed1f7fd88004388b36c77a242e8f0386c4d \
    --hash=sha256:877d4e080f6ded85d566127c7256de8afae6ab4fdc7ef301f7cc906a8177e3e8
sphinx==2.1.2 \
    --hash=sha256:22538e1bbe62b407cf5a8aabe1bb15848aa66bb79559f42f5202bbce6b757a69 \
    --hash=sha256:f9a79e746b87921cabc3baa375199c6076d1270cee53915dbd24fdbeaaacc427
sphinxcontrib-applehelp==1.0.1 \
    --hash=sha256:edaa0ab2b2bc74403149cb0209d6775c96de797dfd5b5e2a71981309efab3897 \
    --hash=sha256:fb8dee85af95e5c30c91f10e7eb3c8967308518e0f7488a2828ef7bc191d0d5d \
    # via sphinx
sphinxcontrib-devhelp==1.0.1 \
    --hash=sha256:6c64b077937330a9128a4da74586e8c2130262f014689b4b89e2d08ee7294a34 \
    --hash=sha256:9512ecb00a2b0821a146736b39f7aeb90759834b07e81e8cc23a9c70bacb9981 \
    # via sphinx
sphinxcontrib-htmlhelp==1.0.2 \
    --hash=sha256:4670f99f8951bd78cd4ad2ab962f798f5618b17675c35c5ac3b2132a14ea8422 \
    --hash=sha256:d4fd39a65a625c9df86d7fa8a2d9f3cd8299a3a4b15db63b50aac9e161d8eff7 \
    # via sphinx
sphinxcontrib-jsmath==1.0.1 \
    --hash=sha256:2ec2eaebfb78f3f2078e73666b1415417a116cc848b72e5172e596c871103178 \
    --hash=sha256:a9925e4a4587247ed2191a22df5f6970656cb8ca2bd6284309578f2153e0c4b8 \
    # via sphinx
sphinxcontrib-qthelp==1.0.2 \
    --hash=sha256:513049b93031beb1f57d4daea74068a4feb77aa5630f856fcff2e50de14e9a20 \
    --hash=sha256:79465ce11ae5694ff165becda529a600c754f4bc459778778c7017374d4d406f \
    # via sphinx
sphinxcontrib-serializinghtml==1.1.3 \
    --hash=sha256:c0efb33f8052c04fd7a26c0a07f1678e8512e0faec19f4aa8f2473a8b81d5227 \
    --hash=sha256:db6615af393650bf1151a6cd39120c29abaf93cc60db8c48eb2dddbfdc3a9768 \
    # via sphinx
typed-ast==1.4.0 \
    --hash=sha256:18511a0b3e7922276346bcb47e2ef9f38fb90fd31cb9223eed42c85d1312344e \
    --hash=sha256:262c247a82d005e43b5b7f69aff746370538e176131c32dda9cb0f324d27141e \
    --hash=sha256:2b907eb046d049bcd9892e3076c7a6456c93a25bebfe554e931620c90e6a25b0 \
    --hash=sha256:354c16e5babd09f5cb0ee000d54cfa38401d8b8891eefa878ac772f827181a3c \
    --hash=sha256:4e0b70c6fc4d010f8107726af5fd37921b666f5b31d9331f0bd24ad9a088e631 \
    --hash=sha256:630968c5cdee51a11c05a30453f8cd65e0cc1d2ad0d9192819df9978984529f4 \
    --hash=sha256:66480f95b8167c9c5c5c87f32cf437d585937970f3fc24386f313a4c97b44e34 \
    --hash=sha256:71211d26ffd12d63a83e079ff258ac9d56a1376a25bc80b1cdcdf601b855b90b \
    --hash=sha256:95bd11af7eafc16e829af2d3df510cecfd4387f6453355188342c3e79a2ec87a \
    --hash=sha256:bc6c7d3fa1325a0c6613512a093bc2a2a15aeec350451cbdf9e1d4bffe3e3233 \
    --hash=sha256:cc34a6f5b426748a507dd5d1de4c1978f2eb5626d51326e43280941206c209e1 \
    --hash=sha256:d755f03c1e4a51e9b24d899561fec4ccaf51f210d52abdf8c07ee2849b212a36 \
    --hash=sha256:d7c45933b1bdfaf9f36c579671fec15d25b06c8398f113dab64c18ed1adda01d \
    --hash=sha256:d896919306dd0aa22d0132f62a1b78d11aaf4c9fc5b3410d3c666b818191630a \
    --hash=sha256:ffde2fbfad571af120fcbfbbc61c72469e72f550d676c3342492a9dfdefb8f12 \
    # via astroid
ujson==1.35 \
    --hash=sha256:f66073e5506e91d204ab0c614a148d5aa938bdbf104751be66f8ad7a222f5f86
urllib3==1.25.6 \
    --hash=sha256:3de946ffbed6e6746608990594d08faac602528ac7015ac28d33cee6a45b7398 \
    --hash=sha256:9a107b99a5393caf59c7aa3c1249c16e6879447533d0887f4336dde834c7be86 \
    # via requests
wcwidth==0.1.7 \
    --hash=sha256:3df37372226d6e63e1b1e1eda15c594bca98a22d33a23832a90998faa96bc65e \
    --hash=sha256:f4ebe71925af7b40a864553f761ed559b43544f8f71746c2d756c7fe788ade7c \
    # via pytest
wheel==0.33.6 \
    --hash=sha256:10c9da68765315ed98850f8e048347c3eb06dd81822dc2ab1d4fde9dc9702646 \
    --hash=sha256:f4da1763d3becf2e2cd92a14a7c920f0f00eca30fdde9ea992c836685b9faf28
wmctrl==0.3 \
    --hash=sha256:d806f65ac1554366b6e31d29d7be2e8893996c0acbb2824bbf2b1f49cf628a13 \
    # via pdbpp
wrapt==1.11.2 \
    --hash=sha256:565a021fd19419476b9362b05eeaa094178de64f8361e44468f9e9d7843901e1 \
    # via astroid
yarl==1.3.0 \
    --hash=sha256:024ecdc12bc02b321bc66b41327f930d1c2c543fa9a561b39861da9388ba7aa9 \
    --hash=sha256:2f3010703295fbe1aec51023740871e64bb9664c789cba5a6bdf404e93f7568f \
    --hash=sha256:3890ab952d508523ef4881457c4099056546593fa05e93da84c7250516e632eb \
    --hash=sha256:3e2724eb9af5dc41648e5bb304fcf4891adc33258c6e14e2a7414ea32541e320 \
    --hash=sha256:5badb97dd0abf26623a9982cd448ff12cb39b8e4c94032ccdedf22ce01a64842 \
    --hash=sha256:73f447d11b530d860ca1e6b582f947688286ad16ca42256413083d13f260b7a0 \
    --hash=sha256:7ab825726f2940c16d92aaec7d204cfc34ac26c0040da727cf8ba87255a33829 \
    --hash=sha256:b25de84a8c20540531526dfbb0e2d2b648c13fd5dd126728c496d7c3fea33310 \
    --hash=sha256:c6e341f5a6562af74ba55205dbd56d248daf1b5748ec48a0200ba227bb9e33f4 \
    --hash=sha256:c9bb7c249c4432cd47e75af3864bc02d26c9594f49c82e2a28624417f0ae63b8 \
    --hash=sha256:e060906c0c585565c718d1c3841747b61c5439af2211e185f6739a9412dfbde1
zipp==0.6.0 \
    --hash=sha256:3718b1cbcd963c7d4c5511a8240812904164b7f381b647143a89d3b98f9bcd8e \
    --hash=sha256:f06903e9f1f43b12d371004b4ac7b06ab39a44adc747266928ae6debfa7b3335 \
    # via importlib-metadata

# The following packages are considered to be unsafe in a requirements file:
setuptools==41.2.0 \
    --hash=sha256:4380abcf2a4ffd1a5ba22d687c6d690dce83b2b51c70e9c6d09f7e8c7e8040dc \
    --hash=sha256:66b86bbae7cc7ac2e867f52dc08a6bd064d938bac59dfec71b9b565dd36d6012 \
    # via sphinx
